{
	"spec_version": "v1",
  "model_type": "object-detector",
  "architecture": "yolov7",
  "input_data": {
    "layers": [
      {
        "name": "images",
        "shape": [-1, 3, 640, 640],
        "attribs": ["channel_order"],
        "channel_order": "RGB"
      }
    ]
  },
  "output_data": {
    "layers": [
       {
        "name": "output",
        "shape": [-1, 255, 80, 80],
        "attribs": ["nms", "anchors"],
        "nms": 0.6,
        "anchors":[10,13, 16,30, 33,23]
      },
      {
        "name": "290",
        "shape": [-1, 255, 40, 40],
        "attribs": ["nms", "anchors"],
        "nms": 0.6,
        "anchors": [30,61, 62,45, 59,119]
      },
      {
        "name": "303",
        "shape": [-1, 255, 20, 20],
        "attribs": ["nms", "anchors"],
        "nms": 0.6,
        "anchors": [116,90, 156,198, 373,326]
      }
    ],
    "labels": [
      "person",
      "bicycle",
      "car",
      "motorbike",
      "aeroplane",
      "bus",
      "train",
      "truck",
      "boat",
      "traffic light",
      "fire hydrant",
      "stop sign",
      "parking meter",
      "bench",
      "bird",
      "cat",
      "dog",
      "horse",
      "sheep",
      "cow",
      "elephant",
      "bear",
      "zebra",
      "giraffe",
      "backpack",
      "umbrella",
      "handbag",
      "tie",
      "suitcase",
      "frisbee",
      "skis",
      "snowboard",
      "sports ball",
      "kite",
      "baseball bat",
      "baseball glove",
      "skateboard",
      "surfboard",
      "tennis racket",
      "bottle",
      "wine glass",
      "cup",
      "fork",
      "knife",
      "spoon",
      "bowl",
      "banana",
      "apple",
      "sandwich",
      "orange",
      "broccoli",
      "carrot",
      "hot dog",
      "pizza",
      "donut",
      "cake",
      "chair",
      "sofa",
      "pottedplant",
      "bed",
      "diningtable",
      "toilet",
      "tvmonitor",
      "laptop",
      "mouse",
      "remote",
      "keyboard",
      "cell phone",
      "microwave",
      "oven",
      "toaster",
      "sink",
      "refrigerator",
      "book",
      "clock",
      "vase",
      "scissors",
      "teddy bear",
      "hair drier",
      "toothbrush"
    ]
  },
  "onnx_path": "common.tiny_yolov7/v1/onnx/yolov7-tiny.onnx",
  "onnx_ir": 6,
  "onnx_opset": 12,
  "deepstream_config_path": "/path/to/config/file"
}

