{
	"spec_version": "v1",
  "model_type": "object-detector",
  "architecture": "tiny-yolov3",
  "input_data": {
    "layers": [
      {
        "name": "000_net",
        "shape": [-1, 3, 416, 416],
        "attribs": ["channel_order"],
        "channel_order": "BGR"
      }
    ]
  },
  "output_data": {
    "layers": [
      {
        "name": "016_convolutional",
        "shape": [-1, 255, 13, 13],
        "attribs": ["nms", "anchors"],
        "nms": 0.6,
        "anchors": [81, 82, 135, 169, 344, 319]
      },
      {
        "name": "023_convolutional",
        "shape": [-1, 255, 26, 26],
        "attribs": ["nms", "anchors"],
        "nms": 0.6,
        "anchors": [10, 14, 23, 27, 37, 58]
      }
    ],
    "labels": [
      "person",
      "bicycle",
      "car",
      "motorbike",
      "aeroplane",
      "bus",
      "train",
      "truck",
      "boat",
      "traffic light",
      "fire hydrant",
      "stop sign",
      "parking meter",
      "bench",
      "bird",
      "cat",
      "dog",
      "horse",
      "sheep",
      "cow",
      "elephant",
      "bear",
      "zebra",
      "giraffe",
      "backpack",
      "umbrella",
      "handbag",
      "tie",
      "suitcase",
      "frisbee",
      "skis",
      "snowboard",
      "sports ball",
      "kite",
      "baseball bat",
      "baseball glove",
      "skateboard",
      "surfboard",
      "tennis racket",
      "bottle",
      "wine glass",
      "cup",
      "fork",
      "knife",
      "spoon",
      "bowl",
      "banana",
      "apple",
      "sandwich",
      "orange",
      "broccoli",
      "carrot",
      "hot dog",
      "pizza",
      "donut",
      "cake",
      "chair",
      "sofa",
      "pottedplant",
      "bed",
      "diningtable",
      "toilet",
      "tvmonitor",
      "laptop",
      "mouse",
      "remote",
      "keyboard",
      "cell phone",
      "microwave",
      "oven",
      "toaster",
      "sink",
      "refrigerator",
      "book",
      "clock",
      "vase",
      "scissors",
      "teddy bear",
      "hair drier",
      "toothbrush"
    ]
  },
  "onnx_path": "common.tiny_yolov3/v1/onnx/yolov3-tiny.onnx",
  "onnx_ir": 4,
  "onnx_opset": 12,
  "deepstream_config_path": "common.tiny_yolov3/v1/deepstream/config.txt"
}
