{
	"spec_version": "v1",
  "model_type": "object-detector",
  "architecture": "yolov7",
  "input_data": {
    "layers": [
      {
        "name": "images",
        "shape": [-1, 3, 640, 640],
        "attribs": ["channel_order"],
        "channel_order": "RGB"
      }
    ]
  },
  "output_data": {
    "layers": [
       {
        "name": "output",
        "shape": [-1, 21, 80, 80],
        "attribs": ["nms", "anchors"],
        "nms": 0.6,
        "anchors":[10,13, 16,30, 33,23]
      }
    ],
    "labels": ["box_DMC", "forklift_ArUco", "forklift_DMC", "forklift", "box"]
 
  },
  "onnx_path": "dmc.tiny_yolov7/v1/onnx/dmc_detector.onnx",
  "onnx_ir": 6,
  "onnx_opset": 12,
  "deepstream_config_path": "/path/to/config/file"
}
