{
	"spec_version": "v1",
  "model_type": "regressor",
  "architecture": "cosface",
  "input_data": {
    "layers": [
      {
        "name": "data",
        "shape": [-1, 3, 112, 112],
        "attribs": ["channel_order"],
        "channel_order": "RGB"
      }
    ]
  },
  "output_data": {
    "layers": [
      {
        "name": "fc1",
        "shape": [-1, 512]
      }
    ]
  },
  "onnx_path": "face_recognition.cosface/v1/onnx/face_recognition_12.onnx",
  "onnx_ir": 7,
  "onnx_opset": 12,
  "deepstream_config_path": "face_recognition.cosface/v1/deepstream/config.txt"
}
