{
	"spec_version": "v1",
  "model_type": "object-detector",
  "architecture": "yolov3",
  "input_data": {
    "layers": [
      {
        "name": "000_net",
        "shape": [-1, 3, 416, 416],
        "attribs": ["channel_order"],
        "channel_order": "BGR"
      }
    ]
  },
  "output_data": {
    "layers": [
      {
        "name": "082_convolutional",
        "shape": [-1, 21, 19, 19],
        "attribs": ["nms", "anchors"],
        "nms": 0.6,
        "anchors": [116, 90, 156, 198, 373, 326]
      },
      {
        "name": "094_convolutional",
        "shape": [-1, 21, 38, 38],
        "attribs": ["nms", "anchors"],
        "nms": 0.6,
        "anchors": [30, 61, 62, 45, 59, 119]
      },
      {
        "name": "106_convolutional",
        "shape": [-1, 21, 76, 76],
        "attribs": ["nms", "anchors"],
        "nms": 0.6,
        "anchors": [10, 13, 16, 30, 33, 23]
      }
    ],
    "labels": [
      "fire",
      "non-fire",
      "smoke"
    ]
  },
  "onnx_path": "fire_and_smoke_detection.yolov3/v2/onnx/yolov3.onnx",
  "onnx_ir": 4,
  "onnx_opset": 12,
  "deepstream_config_path": "fire_and_smoke_detection.yolov3/v2/deepstream/config_v2.txt"
}
