{
	"spec_version": "v1",
  "model_type": "object-detector",
  "architecture": "tiny-yolov3",
  "input_data": {
    "layers": [
      {
        "name": "000_net",
        "shape": [-1, 3, 608, 608],
        "attribs": ["channel_order"],
        "channel_order": "BGR"
      }
    ]
  },
  "output_data": {
    "layers": [
      {
        "name": "016_convolutional",
        "shape": [-1, 255, 13, 13],
        "attribs": ["nms", "anchors"],
        "nms": 0.6,
        "anchors": [81, 82, 135, 169, 344, 319]
      },
      {
        "name": "023_convolutional",
        "shape": [-1, 255, 26, 26],
        "attribs": ["nms", "anchors"],
        "nms": 0.6,
        "anchors": [10, 14, 23, 27, 37, 58]
      }
    ],
    "labels": ["safety_vest", "safety_helmet", "person"]
  },
  "onnx_path": "ppe.tiny_yolov3/v2/onnx/yolov3-ppe-tiny_best.onnx",
  "onnx_ir": 4,
  "onnx_opset": 12,
  "deepstream_config_path": "ppe.tiny_yolov3/v2/deepstream/config.txt"
}
