{
	"spec_version": "v1",
  "model_type": "multi_label_classifier",
  "architecture": "resnet50",
  "input_data": {
    "layers": [
      {
        "name": "input.1",
        "shape": [-1, 3, 288, 144],
        "attribs": ["channel_order"],
        "channel_order": "RGB"
      }
    ]
  },
  "output_data": {
    "layers": [
      {
        "name": "gender",
        "labels": ["female", "male"],
        "shape": [-1, 1]
      },
      {
        "name": "age_group",
        "labels": ["child", "youth", "adult"],
        "shape": [-1, 3]
      },
      {
        "name": "upper_clothing",
        "labels": [
          "pink",
          "white",
          "blue",
          "red",
          "orange",
          "purple",
          "brown",
          "gray",
          "yellow",
          "black",
          "green",
          "khaki"
        ],
        "shape": [-1, 12]
      },
      {
        "name": "lower_clothing",
        "labels": [
          "pink",
          "white",
          "blue",
          "red",
          "orange",
          "purple",
          "brown",
          "gray",
          "yellow",
          "black",
          "green",
          "khaki"
        ],
        "shape": [-1, 12]
      },
      {
        "name": "hair_length",
        "labels": ["short", "long"],
        "shape": [-1, 1]
      },
      {
        "name": "sleeve_length",
        "labels": ["short", "long"],
        "shape": [-1, 1]
      },
      {
        "name": "bottom_length",
        "labels": ["short", "long"],
        "shape": [-1, 1]
      },
      {
        "name": "bagpack",
        "labels": ["no", "yes"],
        "shape": [-1, 1]
      },
      {
        "name": "handbag",
        "labels": ["no", "yes"],
        "shape": [-1, 1]
      },
      {
        "name": "cap",
        "labels": ["no", "yes"],
        "shape": [-1, 1]
      }
    ]
  },
  "onnx_path": "person_attribute.resnet50/v1/onnx/net_10-best-64.preprocessed.onnx",
  "onnx_ir": 8,
  "onnx_opset": 12,
  "deepstream_config_path": "person_attribute.resnet50/v1/deepstream/config.txt"
}
