{
  "model_type": "multi_label_classifier",
  "architecture": "EfficientNet B7",
  "infer_blob": "curr_blobs",
  "preprocesses":{
  "norm":[255.0],
  "mean":[0.485, 0.456, 0.406],
  "stddev":[0.229, 0.224, 0.225]

  },
  "input_data": {
    "layers": [
      {
        "name": "input.1",
        "shape": [-1, 3, 50, 50],
        "attribs": ["channel_order"],
        "channel_order": "RGB"
      }
    ]
  },
  "output_data": {
    "layers": [
      {
        "name": "bag",
        "labels": ["NO", "YES"],
        "shape": [-1, 1]
      }
    ]
  },
  "onnx_path": "bag_classifier.efficientnetb7/v2/onnx/bag_classifier_B7.onnx",
  "onnx_ir": 7,
  "onnx_opset": 12,
  "deepstream_config_path": "/path/to/config/file"
}
