{
	"spec_version": "v1",
   "model_type": "multi_label_classifier",
   "architecture": "vgg19",
   "input_data": {
     "layers": [
       {
         "name": "input",
         "shape": [-1,3, 224, 224],
         "attribs": ["channel_order"],
         "channel_order": "BGR"
       }
     ]
   },
   "output_data": {
     "layers": [
       {
         "name": "color",
         "labels": ["NA", "black","blue","gray","green","khakhi","orange","pink", "purple","red","white","yellow"],
         "shape": [-1, 12]
       },
       {
          "name": "itype",
          "labels":["2 Axle","3 Axle","LGV","LMV","NA"]
          ,
          "shape": [-1, 5]
       },
       {
         "name": "label",
         "labels":["3 wheeler", "NA", "bicycle", "bus", "car", "e-riksha", "motorbike", "truck"]
         ,
         "shape": [-1, 8]
       },
       {
         "name": "make",
        "labels":["Mercedes Benz","NA","bmw","chevrolet","ford","honda","hyundai","mahindra","maruti suzuki","nissan","renault","tata motors","toyota","volkswagen"],
         "shape": [-1, 14]
       },
       {
          "name": "type",         
          "labels":["NA","hatchback","jeep","sedan","suv","van","wagon"],
          "shape": [-1, 7]
       }
     ]
   },
   "onnx_path": "vehicle_attribute.vgg19/v2/onnx/new_training_model49.onnx",
   "onnx_ir": 4,
   "onnx_opset": 9,
   "deepstream_config_path": "vehicle_attribute.vgg19/v2/deepstream/config.txt"
 }
